<svg xmlns="http://www.w3.org/2000/svg" xmlns:xlink="http://www.w3.org/1999/xlink" viewBox="0 0 197 44">
  <defs>
    <clipPath id="clip-path">
      <rect id="Rectangle_37" data-name="Rectangle 37" width="55.407" height="44" transform="translate(0 6.815)"/>
    </clipPath>
    <clipPath id="clip-LOGO_3">
      <rect width="197" height="44"/>
    </clipPath>
  </defs>
  <g id="LOGO_3" data-name="LOGO – 3" clip-path="url(#clip-LOGO_3)">
    <g id="Group_29" data-name="Group 29" transform="translate(5 3.515)">
      <path id="Path_35" data-name="Path 35" d="M.253-12.581v-3.68H6.831V0H2.691V-12.581ZM9.154-8.3a10.486,10.486,0,0,0,1.541,6.049A5.557,5.557,0,0,0,15.617-.023a5.563,5.563,0,0,0,4.91-2.231A10.427,10.427,0,0,0,22.08-8.3a10.326,10.326,0,0,0-1.552-6.014,5.574,5.574,0,0,0-4.91-2.219,5.568,5.568,0,0,0-4.922,2.219A10.384,10.384,0,0,0,9.154-8.3Zm9.016,0a8.689,8.689,0,0,1-.517,3.37,2,2,0,0,1-2.035,1.184,2.044,2.044,0,0,1-2.07-1.184,8.518,8.518,0,0,1-.529-3.37,8.356,8.356,0,0,1,.529-3.335,2.047,2.047,0,0,1,2.07-1.173,2.007,2.007,0,0,1,2.035,1.161A8.509,8.509,0,0,1,18.17-8.3Zm22.816-4.669a4.836,4.836,0,0,1,3.726,1.46,5.735,5.735,0,0,1,1.357,4.06V0h-3.91V-6.992a2.618,2.618,0,0,0-.655-1.9,2.363,2.363,0,0,0-1.783-.679,2.414,2.414,0,0,0-1.852.724,2.863,2.863,0,0,0-.678,2.036V0H33.258V-6.992a2.646,2.646,0,0,0-.644-1.9,2.325,2.325,0,0,0-1.771-.679,2.472,2.472,0,0,0-1.863.713,2.826,2.826,0,0,0-.69,2.047V0H24.357V-12.834H28.29v2.185a3.829,3.829,0,0,1,1.552-1.7,4.71,4.71,0,0,1,2.449-.621,4.94,4.94,0,0,1,2.6.679,4.262,4.262,0,0,1,1.7,1.944,5.141,5.141,0,0,1,1.828-1.909A4.807,4.807,0,0,1,40.986-12.972Zm12.581-.023a4.646,4.646,0,0,1,2.53.667,4.01,4.01,0,0,1,1.564,1.817v-2.323h3.91V0h-3.91V-2.323A4.01,4.01,0,0,1,56.1-.506a4.646,4.646,0,0,1-2.53.667,5.2,5.2,0,0,1-2.84-.793,5.429,5.429,0,0,1-1.978-2.289,7.931,7.931,0,0,1-.725-3.5,7.913,7.913,0,0,1,.725-3.507A5.442,5.442,0,0,1,50.727-12.2,5.2,5.2,0,0,1,53.567-12.995Zm1.265,3.45a2.649,2.649,0,0,0-2.035.828,3.246,3.246,0,0,0-.771,2.3,3.246,3.246,0,0,0,.771,2.3,2.649,2.649,0,0,0,2.035.828,2.659,2.659,0,0,0,2.035-.851,3.205,3.205,0,0,0,.793-2.277,3.2,3.2,0,0,0-.793-2.289A2.677,2.677,0,0,0,54.832-9.545Zm9.085-6.9a1.92,1.92,0,0,1,.644-1.484,2.43,2.43,0,0,1,1.7-.586,2.43,2.43,0,0,1,1.7.586,1.92,1.92,0,0,1,.644,1.484,1.894,1.894,0,0,1-.644,1.46,2.43,2.43,0,0,1-1.7.587,2.43,2.43,0,0,1-1.7-.587A1.894,1.894,0,0,1,63.917-16.445Zm4.3,3.611V0H64.285V-12.834Zm6.647-4.186V0H70.932V-17.02Zm7.383,4.025a5.889,5.889,0,0,1,3.9,1.219,5.3,5.3,0,0,1,1.828,3.22h-3.68a2.039,2.039,0,0,0-.724-1.231,2.2,2.2,0,0,0-1.415-.448,1.546,1.546,0,0,0-1.012.287,1,1,0,0,0-.345.816.958.958,0,0,0,.632.9,10.086,10.086,0,0,0,1.989.6,19.757,19.757,0,0,1,2.415.7,3.984,3.984,0,0,1,1.633,1.161,3.21,3.21,0,0,1,.69,2.162,3.316,3.316,0,0,1-.6,1.955A3.937,3.937,0,0,1,85.836-.322a6.741,6.741,0,0,1-2.668.483A6.87,6.87,0,0,1,79-.989,4.852,4.852,0,0,1,77.1-4.278h3.795a1.708,1.708,0,0,0,.7,1.265,2.641,2.641,0,0,0,1.576.437,1.467,1.467,0,0,0,1.012-.31,1.046,1.046,0,0,0,.345-.817.982.982,0,0,0-.632-.954,11.629,11.629,0,0,0-2.059-.61,16.46,16.46,0,0,1-2.346-.644A3.873,3.873,0,0,1,77.9-7.027a3.108,3.108,0,0,1-.667-2.1,3.434,3.434,0,0,1,1.311-2.794A5.713,5.713,0,0,1,82.248-12.995Z" transform="translate(63 28)" fill="#2c417f"/>
      <path id="Path_36" data-name="Path 36" d="M2.829-2.07V0H.69V-2.07Zm8.74-10.718A4.765,4.765,0,0,1,15.122-11.4a5.59,5.59,0,0,1,1.369,4.082V0H14.9V-7.2a4.392,4.392,0,0,0-1.035-3.14,3.71,3.71,0,0,0-2.829-1.092,3.888,3.888,0,0,0-3,1.207A5.064,5.064,0,0,0,6.923-6.67V0H5.29V-12.558H6.923v3.082a4.362,4.362,0,0,1,1.748-2.461A5.07,5.07,0,0,1,11.569-12.788Zm13.8,11.615a4.662,4.662,0,0,0,2.852-.851,3.417,3.417,0,0,0,1.38-2.3h1.7a5.112,5.112,0,0,1-1.909,3.243A6.164,6.164,0,0,1,25.438.161a6.466,6.466,0,0,1-3.186-.77A5.4,5.4,0,0,1,20.079-2.84,7.182,7.182,0,0,1,19.3-6.279a7.182,7.182,0,0,1,.782-3.439,5.4,5.4,0,0,1,2.174-2.231,6.466,6.466,0,0,1,3.186-.77,6.3,6.3,0,0,1,3.186.77A5.231,5.231,0,0,1,30.67-9.89a5.772,5.772,0,0,1,.7,2.806,6.872,6.872,0,0,1-.092,1.173h-10.4a5.3,5.3,0,0,0,.656,2.656,3.955,3.955,0,0,0,1.644,1.575A4.818,4.818,0,0,0,25.369-1.173Zm.069-10.235a4.918,4.918,0,0,0-2.231.506A3.993,3.993,0,0,0,21.563-9.35a5.278,5.278,0,0,0-.679,2.611h8.878a4.633,4.633,0,0,0-.506-2.6,3.765,3.765,0,0,0-1.61-1.564A4.868,4.868,0,0,0,25.438-11.408ZM39.974-1.426V0H38.479a3.782,3.782,0,0,1-2.714-.863,3.921,3.921,0,0,1-.9-2.91v-7.383H32.959v-1.4h1.909v-3.174H36.5v3.174h3.45v1.4H36.5v7.406a2.628,2.628,0,0,0,.483,1.829,2.339,2.339,0,0,0,1.7.494Z" transform="translate(152 28)" fill="#2c417f" opacity="0.8"/>
    </g>
    <g id="logo" transform="translate(0 -6.815)" clip-path="url(#clip-path)">
      <g id="Group_26" data-name="Group 26" transform="translate(0 7.017)">
        <path id="Union_1" data-name="Union 1" d="M190.137,48.541C187.679,46.484,186,43.178,186,29.8s1.679-16.686,4.137-18.742C192.478,9.088,195.267,8,213.909,8s21.431,1.088,23.772,3.056c2.458,2.057,4.137,5.362,4.137,18.742h0c0,13.38-1.679,16.686-4.137,18.743-2.341,1.967-5.13,3.055-23.772,3.055S192.478,50.508,190.137,48.541Z" transform="translate(-186 -8)" fill="#cdd8eb"/>
        <path id="Intersection_20" data-name="Intersection 20" d="M188.055,14.586a8.141,8.141,0,0,1,2.479-3.531C192.876,9.088,195.663,8,214.306,8s21.431,1.088,23.772,3.056c2.458,2.057,4.137,5.363,4.137,18.742h0c0,13.38-1.679,16.686-4.137,18.743-2.042,1.716-4.424,2.763-17.368,3Z" transform="translate(-186.398 -8)" fill="#bfc9de"/>
        <path id="Intersection_15" data-name="Intersection 15" d="M188.011,14.606a8.153,8.153,0,0,1,2.487-3.552C192.838,9.088,195.627,8,214.269,8s21.431,1.088,23.772,3.056a8.152,8.152,0,0,1,2.486,3.552L214.269,29.8Z" transform="translate(-186.36 -8)" fill="#e0e4ec"/>
        <path id="Path_16" data-name="Path 16" d="M2990.013,1377.772l27.3-15.805,1.173,1.776-24.6,19.146Z" transform="translate(-2964.556 -1354.543)" fill="#7384a8"/>
        <path id="Path_17" data-name="Path 17" d="M0,8.69,16.92,0l1.19,1.839L2.855,14.634Z" transform="matrix(-0.342, -0.94, 0.94, -0.342, 18.113, 31.214)" fill="#7384a8"/>
        <ellipse id="Ellipse_3" data-name="Ellipse 3" cx="3.489" cy="3.431" rx="3.489" ry="3.431" transform="translate(24.42 21.798)" fill="#92a0bf"/>
      </g>
    </g>
  </g>
</svg>
